Внешний идентификатор для импорта,Фамилия,Имя,Отчество,Отдел,Должность,Адрес электронной почты,Мобильный телефон,Внутренний телефон,Домашний телефон,Логин,Пароль
1,Иванова,Ирина,Витальевна,OU002,Бухгалтер,iivanova@service.ru,88002000600.0,131,,iivanova,iivanova
2,Сергеев,Константин,Игоревич,OU002,Руководитель отдела,ksergeev@service.ru,,201,,ksergeev,ksergeev
3,Бучельников,Николай,Иванович,OU003,Специалист,nbuchelnikov@service.ru,,201,,nbuchelnikov,nbuchelnikov
4,Гулина,Алена,Евгеньевна,OU005,Бухгалтер,agulina@region.ru,,132,,agulina,agulina
5,Калашников,Евгений,Валентинович,OU005,Руководитель филиала,,,440,,ekalashnikov,ekalashnikov
